{
   "id": "*********",
   "service_account_id": "*******",
   "created_at": "2022-07-28T16:11:01.524936553Z",
   "key_algorithm": "RSA_2048",
   "public_key": "-----BEGIN PUBLIC KEY-----************"
}
